<sdf version='1.6'>
  <world name='default'>
    <light name='sun' type='directional'>
      <cast_shadows>1</cast_shadows>
      <pose frame=''>0 0 10 0 -0 0</pose>
      <diffuse>0.8 0.8 0.8 1</diffuse>
      <specular>0.2 0.2 0.2 1</specular>
      <attenuation>
        <range>1000</range>
        <constant>0.9</constant>
        <linear>0.01</linear>
        <quadratic>0.001</quadratic>
      </attenuation>
      <direction>-0.5 0.1 -0.9</direction>
    </light>
    <model name='ground_plane'>
      <static>1</static>
      <link name='link'>
        <collision name='collision'>
          <geometry>
            <plane>
              <normal>0 0 1</normal>
              <size>100 100</size>
            </plane>
          </geometry>
          <surface>
            <contact>
              <collide_bitmask>65535</collide_bitmask>
              <ode/>
            </contact>
            <friction>
              <ode>
                <mu>100</mu>
                <mu2>50</mu2>
              </ode>
              <torsional>
                <ode/>
              </torsional>
            </friction>
            <bounce/>
          </surface>
          <max_contacts>10</max_contacts>
        </collision>
        <visual name='visual'>
          <cast_shadows>0</cast_shadows>
          <geometry>
            <plane>
              <normal>0 0 1</normal>
              <size>100 100</size>
            </plane>
          </geometry>
          <material>
            <script>
              <uri>file://media/materials/scripts/gazebo.material</uri>
              <name>Gazebo/Grey</name>
            </script>
          </material>
        </visual>
        <self_collide>0</self_collide>
        <enable_wind>0</enable_wind>
        <kinematic>0</kinematic>
      </link>
    </model>
    <gravity>0 0 -9.8</gravity>
    <magnetic_field>6e-06 2.3e-05 -4.2e-05</magnetic_field>
    <atmosphere type='adiabatic'/>
    <physics name='default_physics' default='0' type='ode'>
      <max_step_size>0.001</max_step_size>
      <real_time_factor>1</real_time_factor>
      <real_time_update_rate>1000</real_time_update_rate>
    </physics>
    <scene>
      <ambient>0.4 0.4 0.4 1</ambient>
      <background>0.7 0.7 0.7 1</background>
      <shadows>1</shadows>
    </scene>
    <audio>
      <device>default</device>
    </audio>
    <wind/>
    <spherical_coordinates>
      <surface_model>EARTH_WGS84</surface_model>
      <latitude_deg>0</latitude_deg>
      <longitude_deg>0</longitude_deg>
      <elevation>0</elevation>
      <heading_deg>0</heading_deg>
    </spherical_coordinates>
    <light name='user_spot_light_0' type='spot'>
      <pose frame=''>1.54808 -0.99464 1 0 -0 0</pose>
      <diffuse>0.5 0.5 0.5 1</diffuse>
      <specular>0.1 0.1 0.1 1</specular>
      <direction>0 0 -1</direction>
      <attenuation>
        <range>20</range>
        <constant>0.5</constant>
        <linear>0.01</linear>
        <quadratic>0.001</quadratic>
      </attenuation>
      <cast_shadows>0</cast_shadows>
      <spot>
        <inner_angle>0.6</inner_angle>
        <outer_angle>1</outer_angle>
        <falloff>1</falloff>
      </spot>
    </light>
    <model name='unit_box'>
      <pose frame=''>0.490434 1.49989 0.5 0 -0 0</pose>
      <link name='link'>
        <inertial>
          <mass>1</mass>
          <inertia>
            <ixx>0.166667</ixx>
            <ixy>0</ixy>
            <ixz>0</ixz>
            <iyy>0.166667</iyy>
            <iyz>0</iyz>
            <izz>0.166667</izz>
          </inertia>
        </inertial>
        <collision name='collision'>
          <geometry>
            <box>
              <size>1 1 1</size>
            </box>
          </geometry>
          <max_contacts>10</max_contacts>
          <surface>
            <contact>
              <ode/>
            </contact>
            <bounce/>
            <friction>
              <torsional>
                <ode/>
              </torsional>
              <ode/>
            </friction>
          </surface>
        </collision>
        <visual name='visual'>
          <geometry>
            <box>
              <size>1 1 1</size>
            </box>
          </geometry>
          <material>
            <script>
              <name>Gazebo/Grey</name>
              <uri>file://media/materials/scripts/gazebo.material</uri>
            </script>
          </material>
        </visual>
        <self_collide>0</self_collide>
        <enable_wind>0</enable_wind>
        <kinematic>0</kinematic>
      </link>
    </model>
    <model name='unit_box_clone'>
      <pose frame=''>0.957521 -2.09121 0.499995 -5e-06 2e-06 -1.7e-05</pose>
      <link name='link'>
        <inertial>
          <mass>1</mass>
          <inertia>
            <ixx>0.166667</ixx>
            <ixy>0</ixy>
            <ixz>0</ixz>
            <iyy>0.166667</iyy>
            <iyz>0</iyz>
            <izz>0.166667</izz>
          </inertia>
        </inertial>
        <collision name='collision'>
          <geometry>
            <box>
              <size>1.97123 1 1</size>
            </box>
          </geometry>
          <max_contacts>10</max_contacts>
          <surface>
            <contact>
              <ode/>
            </contact>
            <bounce/>
            <friction>
              <torsional>
                <ode/>
              </torsional>
              <ode/>
            </friction>
          </surface>
        </collision>
        <visual name='visual'>
          <geometry>
            <box>
              <size>1.97123 1 1</size>
            </box>
          </geometry>
          <material>
            <script>
              <name>Gazebo/Grey</name>
              <uri>file://media/materials/scripts/gazebo.material</uri>
            </script>
          </material>
        </visual>
        <self_collide>0</self_collide>
        <enable_wind>0</enable_wind>
        <kinematic>0</kinematic>
      </link>
    </model>
    <model name='unit_box_clone_0'>
      <pose frame=''>2.99533 2.01824 0.499995 -5e-06 2e-06 -1.7e-05</pose>
      <link name='link'>
        <inertial>
          <mass>1</mass>
          <inertia>
            <ixx>0.166667</ixx>
            <ixy>0</ixy>
            <ixz>0</ixz>
            <iyy>0.166667</iyy>
            <iyz>0</iyz>
            <izz>0.166667</izz>
          </inertia>
        </inertial>
        <collision name='collision'>
          <geometry>
            <box>
              <size>1.97123 1 1</size>
            </box>
          </geometry>
          <max_contacts>10</max_contacts>
          <surface>
            <contact>
              <ode/>
            </contact>
            <bounce/>
            <friction>
              <torsional>
                <ode/>
              </torsional>
              <ode/>
            </friction>
          </surface>
        </collision>
        <visual name='visual'>
          <geometry>
            <box>
              <size>1.97123 1 1</size>
            </box>
          </geometry>
          <material>
            <script>
              <name>Gazebo/Grey</name>
              <uri>file://media/materials/scripts/gazebo.material</uri>
            </script>
          </material>
        </visual>
        <self_collide>0</self_collide>
        <enable_wind>0</enable_wind>
        <kinematic>0</kinematic>
      </link>
    </model>
    <model name='unit_box_clone_1'>
      <pose frame=''>5.01566 2.02883 0.499995 -5e-06 2e-06 -1.7e-05</pose>
      <link name='link'>
        <inertial>
          <mass>1</mass>
          <inertia>
            <ixx>0.166667</ixx>
            <ixy>0</ixy>
            <ixz>0</ixz>
            <iyy>0.166667</iyy>
            <iyz>0</iyz>
            <izz>0.166667</izz>
          </inertia>
        </inertial>
        <collision name='collision'>
          <geometry>
            <box>
              <size>1.97123 1 1</size>
            </box>
          </geometry>
          <max_contacts>10</max_contacts>
          <surface>
            <contact>
              <ode/>
            </contact>
            <bounce/>
            <friction>
              <torsional>
                <ode/>
              </torsional>
              <ode/>
            </friction>
          </surface>
        </collision>
        <visual name='visual'>
          <geometry>
            <box>
              <size>1.97123 1 1</size>
            </box>
          </geometry>
          <material>
            <script>
              <name>Gazebo/Grey</name>
              <uri>file://media/materials/scripts/gazebo.material</uri>
            </script>
          </material>
        </visual>
        <self_collide>0</self_collide>
        <enable_wind>0</enable_wind>
        <kinematic>0</kinematic>
      </link>
    </model>
    <model name='unit_box_clone_2'>
      <pose frame=''>3.03311 -2.0342 0.499995 -5e-06 2e-06 -1.7e-05</pose>
      <link name='link'>
        <inertial>
          <mass>1</mass>
          <inertia>
            <ixx>0.166667</ixx>
            <ixy>0</ixy>
            <ixz>0</ixz>
            <iyy>0.166667</iyy>
            <iyz>0</iyz>
            <izz>0.166667</izz>
          </inertia>
        </inertial>
        <collision name='collision'>
          <geometry>
            <box>
              <size>1.97123 1 1</size>
            </box>
          </geometry>
          <max_contacts>10</max_contacts>
          <surface>
            <contact>
              <ode/>
            </contact>
            <bounce/>
            <friction>
              <torsional>
                <ode/>
              </torsional>
              <ode/>
            </friction>
          </surface>
        </collision>
        <visual name='visual'>
          <geometry>
            <box>
              <size>1.97123 1 1</size>
            </box>
          </geometry>
          <material>
            <script>
              <name>Gazebo/Grey</name>
              <uri>file://media/materials/scripts/gazebo.material</uri>
            </script>
          </material>
        </visual>
        <self_collide>0</self_collide>
        <enable_wind>0</enable_wind>
        <kinematic>0</kinematic>
      </link>
    </model>
    <model name='unit_box_clone_3'>
      <pose frame=''>5.06395 -2.02362 0.499995 -5e-06 2e-06 -1.7e-05</pose>
      <link name='link'>
        <inertial>
          <mass>1</mass>
          <inertia>
            <ixx>0.166667</ixx>
            <ixy>0</ixy>
            <ixz>0</ixz>
            <iyy>0.166667</iyy>
            <iyz>0</iyz>
            <izz>0.166667</izz>
          </inertia>
        </inertial>
        <collision name='collision'>
          <geometry>
            <box>
              <size>1.97123 1 1</size>
            </box>
          </geometry>
          <max_contacts>10</max_contacts>
          <surface>
            <contact>
              <ode/>
            </contact>
            <bounce/>
            <friction>
              <torsional>
                <ode/>
              </torsional>
              <ode/>
            </friction>
          </surface>
        </collision>
        <visual name='visual'>
          <geometry>
            <box>
              <size>1.97123 1 1</size>
            </box>
          </geometry>
          <material>
            <script>
              <name>Gazebo/Grey</name>
              <uri>file://media/materials/scripts/gazebo.material</uri>
            </script>
          </material>
        </visual>
        <self_collide>0</self_collide>
        <enable_wind>0</enable_wind>
        <kinematic>0</kinematic>
      </link>
    </model>
    <model name='unit_box_clone_4'>
      <pose frame=''>7.13488 1.95386 0.499995 -5e-06 2e-06 -1.7e-05</pose>
      <link name='link'>
        <inertial>
          <mass>1</mass>
          <inertia>
            <ixx>0.166667</ixx>
            <ixy>0</ixy>
            <ixz>0</ixz>
            <iyy>0.166667</iyy>
            <iyz>0</iyz>
            <izz>0.166667</izz>
          </inertia>
        </inertial>
        <collision name='collision'>
          <geometry>
            <box>
              <size>1.97123 1 1</size>
            </box>
          </geometry>
          <max_contacts>10</max_contacts>
          <surface>
            <contact>
              <ode/>
            </contact>
            <bounce/>
            <friction>
              <torsional>
                <ode/>
              </torsional>
              <ode/>
            </friction>
          </surface>
        </collision>
        <visual name='visual'>
          <geometry>
            <box>
              <size>1.97123 1 1</size>
            </box>
          </geometry>
          <material>
            <script>
              <name>Gazebo/Grey</name>
              <uri>file://media/materials/scripts/gazebo.material</uri>
            </script>
          </material>
        </visual>
        <self_collide>0</self_collide>
        <enable_wind>0</enable_wind>
        <kinematic>0</kinematic>
      </link>
    </model>
    <model name='unit_box_clone_4_clone'>
      <pose frame=''>7.26183 -1.34637 0.499994 0 -7e-06 0.593701</pose>
      <link name='link'>
        <inertial>
          <mass>1</mass>
          <inertia>
            <ixx>0.166667</ixx>
            <ixy>0</ixy>
            <ixz>0</ixz>
            <iyy>0.166667</iyy>
            <iyz>0</iyz>
            <izz>0.166667</izz>
          </inertia>
        </inertial>
        <collision name='collision'>
          <geometry>
            <box>
              <size>1.97123 1 1</size>
            </box>
          </geometry>
          <max_contacts>10</max_contacts>
          <surface>
            <contact>
              <ode/>
            </contact>
            <bounce/>
            <friction>
              <torsional>
                <ode/>
              </torsional>
              <ode/>
            </friction>
          </surface>
        </collision>
        <visual name='visual'>
          <geometry>
            <box>
              <size>1.97123 1 1</size>
            </box>
          </geometry>
          <material>
            <script>
              <name>Gazebo/Grey</name>
              <uri>file://media/materials/scripts/gazebo.material</uri>
            </script>
          </material>
        </visual>
        <self_collide>0</self_collide>
        <enable_wind>0</enable_wind>
        <kinematic>0</kinematic>
      </link>
    </model>
    <model name='unit_box_clone_4_clone_0'>
      <pose frame=''>9.03039 3.93123 0.499994 0 -7e-06 0.593701</pose>
      <link name='link'>
        <inertial>
          <mass>1</mass>
          <inertia>
            <ixx>0.166667</ixx>
            <ixy>0</ixy>
            <ixz>0</ixz>
            <iyy>0.166667</iyy>
            <iyz>0</iyz>
            <izz>0.166667</izz>
          </inertia>
        </inertial>
        <collision name='collision'>
          <geometry>
            <box>
              <size>1.97123 1 1</size>
            </box>
          </geometry>
          <max_contacts>10</max_contacts>
          <surface>
            <contact>
              <ode/>
            </contact>
            <bounce/>
            <friction>
              <torsional>
                <ode/>
              </torsional>
              <ode/>
            </friction>
          </surface>
        </collision>
        <visual name='visual'>
          <geometry>
            <box>
              <size>1.97123 1 1</size>
            </box>
          </geometry>
          <material>
            <script>
              <name>Gazebo/Grey</name>
              <uri>file://media/materials/scripts/gazebo.material</uri>
            </script>
          </material>
        </visual>
        <self_collide>0</self_collide>
        <enable_wind>0</enable_wind>
        <kinematic>0</kinematic>
      </link>
    </model>
    <model name='unit_box_clone_4_clone_1'>
      <pose frame=''>9.03039 -0.079101 0.499994 0 -7e-06 0.593701</pose>
      <link name='link'>
        <inertial>
          <mass>1</mass>
          <inertia>
            <ixx>0.166667</ixx>
            <ixy>0</ixy>
            <ixz>0</ixz>
            <iyy>0.166667</iyy>
            <iyz>0</iyz>
            <izz>0.166667</izz>
          </inertia>
        </inertial>
        <collision name='collision'>
          <geometry>
            <box>
              <size>1.97123 1 1</size>
            </box>
          </geometry>
          <max_contacts>10</max_contacts>
          <surface>
            <contact>
              <ode/>
            </contact>
            <bounce/>
            <friction>
              <torsional>
                <ode/>
              </torsional>
              <ode/>
            </friction>
          </surface>
        </collision>
        <visual name='visual'>
          <geometry>
            <box>
              <size>1.97123 1 1</size>
            </box>
          </geometry>
          <material>
            <script>
              <name>Gazebo/Grey</name>
              <uri>file://media/materials/scripts/gazebo.material</uri>
            </script>
          </material>
        </visual>
        <self_collide>0</self_collide>
        <enable_wind>0</enable_wind>
        <kinematic>0</kinematic>
      </link>
    </model>
    <model name='unit_box_clone_4_clone_2'>
      <pose frame=''>11.2966 5.29761 0.5 -2e-06 1e-06 0.593943</pose>
      <link name='link'>
        <inertial>
          <mass>1</mass>
          <inertia>
            <ixx>0.166667</ixx>
            <ixy>0</ixy>
            <ixz>0</ixz>
            <iyy>0.166667</iyy>
            <iyz>0</iyz>
            <izz>0.166667</izz>
          </inertia>
        </inertial>
        <collision name='collision'>
          <geometry>
            <box>
              <size>1.97123 1 1</size>
            </box>
          </geometry>
          <max_contacts>10</max_contacts>
          <surface>
            <contact>
              <ode/>
            </contact>
            <bounce/>
            <friction>
              <torsional>
                <ode/>
              </torsional>
              <ode/>
            </friction>
          </surface>
        </collision>
        <visual name='visual'>
          <geometry>
            <box>
              <size>1.97123 1 1</size>
            </box>
          </geometry>
          <material>
            <script>
              <name>Gazebo/Grey</name>
              <uri>file://media/materials/scripts/gazebo.material</uri>
            </script>
          </material>
        </visual>
        <self_collide>0</self_collide>
        <enable_wind>0</enable_wind>
        <kinematic>0</kinematic>
      </link>
    </model>
    <model name='unit_box_clone_4_clone_2_clone'>
      <pose frame=''>12.818 4.24661 0.5 0 -0 1.23022</pose>
      <link name='link'>
        <inertial>
          <mass>1</mass>
          <inertia>
            <ixx>0.166667</ixx>
            <ixy>0</ixy>
            <ixz>0</ixz>
            <iyy>0.166667</iyy>
            <iyz>0</iyz>
            <izz>0.166667</izz>
          </inertia>
        </inertial>
        <collision name='collision'>
          <geometry>
            <box>
              <size>1.97123 1 1</size>
            </box>
          </geometry>
          <max_contacts>10</max_contacts>
          <surface>
            <contact>
              <ode/>
            </contact>
            <bounce/>
            <friction>
              <torsional>
                <ode/>
              </torsional>
              <ode/>
            </friction>
          </surface>
        </collision>
        <visual name='visual'>
          <geometry>
            <box>
              <size>1.97123 1 1</size>
            </box>
          </geometry>
          <material>
            <script>
              <name>Gazebo/Grey</name>
              <uri>file://media/materials/scripts/gazebo.material</uri>
            </script>
          </material>
        </visual>
        <self_collide>0</self_collide>
        <enable_wind>0</enable_wind>
        <kinematic>0</kinematic>
      </link>
    </model>
    <model name='unit_box_clone_4_clone_2_clone_0'>
      <pose frame=''>12.016 1.86807 0.5 0 -0 1.23022</pose>
      <link name='link'>
        <inertial>
          <mass>1</mass>
          <inertia>
            <ixx>0.166667</ixx>
            <ixy>0</ixy>
            <ixz>0</ixz>
            <iyy>0.166667</iyy>
            <iyz>0</iyz>
            <izz>0.166667</izz>
          </inertia>
        </inertial>
        <collision name='collision'>
          <geometry>
            <box>
              <size>1.97123 1 1</size>
            </box>
          </geometry>
          <max_contacts>10</max_contacts>
          <surface>
            <contact>
              <ode/>
            </contact>
            <bounce/>
            <friction>
              <torsional>
                <ode/>
              </torsional>
              <ode/>
            </friction>
          </surface>
        </collision>
        <visual name='visual'>
          <geometry>
            <box>
              <size>1.97123 1 1</size>
            </box>
          </geometry>
          <material>
            <script>
              <name>Gazebo/Grey</name>
              <uri>file://media/materials/scripts/gazebo.material</uri>
            </script>
          </material>
        </visual>
        <self_collide>0</self_collide>
        <enable_wind>0</enable_wind>
        <kinematic>0</kinematic>
      </link>
    </model>
    <model name='unit_box_clone_4_clone_2_clone_1'>
      <pose frame=''>8.89866 8.89146 0.5 0 -0 1.23022</pose>
      <link name='link'>
        <inertial>
          <mass>1</mass>
          <inertia>
            <ixx>0.166667</ixx>
            <ixy>0</ixy>
            <ixz>0</ixz>
            <iyy>0.166667</iyy>
            <iyz>0</iyz>
            <izz>0.166667</izz>
          </inertia>
        </inertial>
        <collision name='collision'>
          <geometry>
            <box>
              <size>1.97123 1 1</size>
            </box>
          </geometry>
          <max_contacts>10</max_contacts>
          <surface>
            <contact>
              <ode/>
            </contact>
            <bounce/>
            <friction>
              <torsional>
                <ode/>
              </torsional>
              <ode/>
            </friction>
          </surface>
        </collision>
        <visual name='visual'>
          <geometry>
            <box>
              <size>1.97123 1 1</size>
            </box>
          </geometry>
          <material>
            <script>
              <name>Gazebo/Grey</name>
              <uri>file://media/materials/scripts/gazebo.material</uri>
            </script>
          </material>
        </visual>
        <self_collide>0</self_collide>
        <enable_wind>0</enable_wind>
        <kinematic>0</kinematic>
      </link>
    </model>
    <model name='unit_box_clone_4_clone_2_clone_1_clone'>
      <pose frame=''>13.3815 6.73728 0.5 0 -0 1.85822</pose>
      <link name='link'>
        <inertial>
          <mass>1</mass>
          <inertia>
            <ixx>0.166667</ixx>
            <ixy>0</ixy>
            <ixz>0</ixz>
            <iyy>0.166667</iyy>
            <iyz>0</iyz>
            <izz>0.166667</izz>
          </inertia>
        </inertial>
        <collision name='collision'>
          <geometry>
            <box>
              <size>1.97123 1 1</size>
            </box>
          </geometry>
          <max_contacts>10</max_contacts>
          <surface>
            <contact>
              <ode/>
            </contact>
            <bounce/>
            <friction>
              <torsional>
                <ode/>
              </torsional>
              <ode/>
            </friction>
          </surface>
        </collision>
        <visual name='visual'>
          <geometry>
            <box>
              <size>1.97123 1 1</size>
            </box>
          </geometry>
          <material>
            <script>
              <name>Gazebo/Grey</name>
              <uri>file://media/materials/scripts/gazebo.material</uri>
            </script>
          </material>
        </visual>
        <self_collide>0</self_collide>
        <enable_wind>0</enable_wind>
        <kinematic>0</kinematic>
      </link>
    </model>
    <model name='unit_box_clone_4_clone_2_clone_1_clone_0'>
      <pose frame=''>13.3627 8.79425 0.5 0 -0 1.85822</pose>
      <link name='link'>
        <inertial>
          <mass>1</mass>
          <inertia>
            <ixx>0.166667</ixx>
            <ixy>0</ixy>
            <ixz>0</ixz>
            <iyy>0.166667</iyy>
            <iyz>0</iyz>
            <izz>0.166667</izz>
          </inertia>
        </inertial>
        <collision name='collision'>
          <geometry>
            <box>
              <size>1.97123 1 1</size>
            </box>
          </geometry>
          <max_contacts>10</max_contacts>
          <surface>
            <contact>
              <ode/>
            </contact>
            <bounce/>
            <friction>
              <torsional>
                <ode/>
              </torsional>
              <ode/>
            </friction>
          </surface>
        </collision>
        <visual name='visual'>
          <geometry>
            <box>
              <size>1.97123 1 1</size>
            </box>
          </geometry>
          <material>
            <script>
              <name>Gazebo/Grey</name>
              <uri>file://media/materials/scripts/gazebo.material</uri>
            </script>
          </material>
        </visual>
        <self_collide>0</self_collide>
        <enable_wind>0</enable_wind>
        <kinematic>0</kinematic>
      </link>
    </model>
    <model name='unit_box_clone_4_clone_2_clone_1_clone_1'>
      <pose frame=''>12.5865 10.9678 0.499995 9e-06 -0 1.85822</pose>
      <link name='link'>
        <inertial>
          <mass>1</mass>
          <inertia>
            <ixx>0.166667</ixx>
            <ixy>0</ixy>
            <ixz>0</ixz>
            <iyy>0.166667</iyy>
            <iyz>0</iyz>
            <izz>0.166667</izz>
          </inertia>
        </inertial>
        <collision name='collision'>
          <geometry>
            <box>
              <size>1.97123 1 1</size>
            </box>
          </geometry>
          <max_contacts>10</max_contacts>
          <surface>
            <contact>
              <ode/>
            </contact>
            <bounce/>
            <friction>
              <torsional>
                <ode/>
              </torsional>
              <ode/>
            </friction>
          </surface>
        </collision>
        <visual name='visual'>
          <geometry>
            <box>
              <size>1.97123 1 1</size>
            </box>
          </geometry>
          <material>
            <script>
              <name>Gazebo/Grey</name>
              <uri>file://media/materials/scripts/gazebo.material</uri>
            </script>
          </material>
        </visual>
        <self_collide>0</self_collide>
        <enable_wind>0</enable_wind>
        <kinematic>0</kinematic>
      </link>
    </model>
    <model name='unit_box_clone_4_clone_2_clone_1_clone_2'>
      <pose frame=''>9.19053 10.1722 0.5 0 -0 1.85822</pose>
      <link name='link'>
        <inertial>
          <mass>1</mass>
          <inertia>
            <ixx>0.166667</ixx>
            <ixy>0</ixy>
            <ixz>0</ixz>
            <iyy>0.166667</iyy>
            <iyz>0</iyz>
            <izz>0.166667</izz>
          </inertia>
        </inertial>
        <collision name='collision'>
          <geometry>
            <box>
              <size>1.97123 1 1</size>
            </box>
          </geometry>
          <max_contacts>10</max_contacts>
          <surface>
            <contact>
              <ode/>
            </contact>
            <bounce/>
            <friction>
              <torsional>
                <ode/>
              </torsional>
              <ode/>
            </friction>
          </surface>
        </collision>
        <visual name='visual'>
          <geometry>
            <box>
              <size>1.97123 1 1</size>
            </box>
          </geometry>
          <material>
            <script>
              <name>Gazebo/Grey</name>
              <uri>file://media/materials/scripts/gazebo.material</uri>
            </script>
          </material>
        </visual>
        <self_collide>0</self_collide>
        <enable_wind>0</enable_wind>
        <kinematic>0</kinematic>
      </link>
    </model>
    <model name='unit_box_clone_4_clone_2_clone_1_clone_1_clone'>
      <pose frame=''>10.9562 12.8114 0.5 0 -0 2.25981</pose>
      <link name='link'>
        <inertial>
          <mass>1</mass>
          <inertia>
            <ixx>0.166667</ixx>
            <ixy>0</ixy>
            <ixz>0</ixz>
            <iyy>0.166667</iyy>
            <iyz>0</iyz>
            <izz>0.166667</izz>
          </inertia>
        </inertial>
        <collision name='collision'>
          <geometry>
            <box>
              <size>1.97123 1 1</size>
            </box>
          </geometry>
          <max_contacts>10</max_contacts>
          <surface>
            <contact>
              <ode/>
            </contact>
            <bounce/>
            <friction>
              <torsional>
                <ode/>
              </torsional>
              <ode/>
            </friction>
          </surface>
        </collision>
        <visual name='visual'>
          <geometry>
            <box>
              <size>1.97123 1 1</size>
            </box>
          </geometry>
          <material>
            <script>
              <name>Gazebo/Grey</name>
              <uri>file://media/materials/scripts/gazebo.material</uri>
            </script>
          </material>
        </visual>
        <self_collide>0</self_collide>
        <enable_wind>0</enable_wind>
        <kinematic>0</kinematic>
      </link>
    </model>
    <state world_name='default'>
      <sim_time>239 531000000</sim_time>
      <real_time>240 62716725</real_time>
      <wall_time>1620673493 762446964</wall_time>
      <iterations>239531</iterations>
      <model name='ground_plane'>
        <pose frame=''>0 0 0 0 -0 0</pose>
        <scale>1 1 1</scale>
        <link name='link'>
          <pose frame=''>0 0 0 0 -0 0</pose>
          <velocity>0 0 0 0 -0 0</velocity>
          <acceleration>0 0 0 0 -0 0</acceleration>
          <wrench>0 0 0 0 -0 0</wrench>
        </link>
      </model>
      <model name='unit_box'>
        <pose frame=''>0.970902 2.01095 0.499994 8e-06 -2e-06 -3e-05</pose>
        <scale>1.97123 1 1</scale>
        <link name='link'>
          <pose frame=''>0.970902 2.01095 0.499994 8e-06 -2e-06 -3e-05</pose>
          <velocity>0 0 0 0 -0 0</velocity>
          <acceleration>-0.681018 -0.364464 -9.11898 -2.19206 -1.15726 3.02916</acceleration>
          <wrench>-0.681018 -0.364464 -9.11898 0 -0 0</wrench>
        </link>
      </model>
      <model name='unit_box_clone'>
        <pose frame=''>0.957517 -2.09131 0.499994 8e-06 -2e-06 -2.4e-05</pose>
        <scale>1 1 1</scale>
        <link name='link'>
          <pose frame=''>0.957517 -2.09131 0.499994 8e-06 -2e-06 -2.4e-05</pose>
          <velocity>0 0 0 0 -0 0</velocity>
          <acceleration>-0.681022 -0.364472 -9.11898 -2.19204 -1.15726 3.02916</acceleration>
          <wrench>-0.681022 -0.364472 -9.11898 0 -0 0</wrench>
        </link>
      </model>
      <model name='unit_box_clone_0'>
        <pose frame=''>2.9953 2.01832 0.5 0 -0 2e-06</pose>
        <scale>1 1 1</scale>
        <link name='link'>
          <pose frame=''>2.9953 2.01832 0.5 0 -0 2e-06</pose>
          <velocity>0 0 0 0 -0 0</velocity>
          <acceleration>2.459 -5.1073 9.97969 -2.34404 -1.34816 -0.003313</acceleration>
          <wrench>2.459 -5.1073 9.97969 0 -0 0</wrench>
        </link>
      </model>
      <model name='unit_box_clone_1'>
        <pose frame=''>5.01563 2.02872 0.499994 8e-06 2e-06 -4e-06</pose>
        <scale>1 1 1</scale>
        <link name='link'>
          <pose frame=''>5.01563 2.02872 0.499994 8e-06 2e-06 -4e-06</pose>
          <velocity>0 0 0 0 -0 0</velocity>
          <acceleration>0.680956 -0.36446 -9.11904 -2.19209 1.15751 -3.02917</acceleration>
          <wrench>0.680956 -0.36446 -9.11904 0 -0 0</wrench>
        </link>
      </model>
      <model name='unit_box_clone_2'>
        <pose frame=''>3.0331 -2.03413 0.5 0 0 -3e-05</pose>
        <scale>1 1 1</scale>
        <link name='link'>
          <pose frame=''>3.0331 -2.03413 0.5 0 0 -3e-05</pose>
          <velocity>0 0 0 0 -0 0</velocity>
          <acceleration>-2.45936 -5.10682 9.97971 -2.34499 1.34744 0.003314</acceleration>
          <wrench>-2.45936 -5.10682 9.97971 0 -0 0</wrench>
        </link>
      </model>
      <model name='unit_box_clone_3'>
        <pose frame=''>5.06395 -2.02374 0.499994 8e-06 -2e-06 -2.4e-05</pose>
        <scale>1 1 1</scale>
        <link name='link'>
          <pose frame=''>5.06395 -2.02374 0.499994 8e-06 -2e-06 -2.4e-05</pose>
          <velocity>0 0 0 0 -0 0</velocity>
          <acceleration>-0.681022 -0.364472 -9.11898 -2.19204 -1.15726 3.02916</acceleration>
          <wrench>-0.681022 -0.364472 -9.11898 0 -0 0</wrench>
        </link>
      </model>
      <model name='unit_box_clone_4'>
        <pose frame=''>7.17778 2.65609 0.5 0 -0 0.595605</pose>
        <scale>1 1 1</scale>
        <link name='link'>
          <pose frame=''>7.17778 2.65609 0.5 0 -0 0.595605</pose>
          <velocity>0 0 0 0 -0 0</velocity>
          <acceleration>4.45201 3.62143 11.4638 0.622117 0.088528 2.91811</acceleration>
          <wrench>4.45201 3.62143 11.4638 0 -0 0</wrench>
        </link>
      </model>
      <model name='unit_box_clone_4_clone'>
        <pose frame=''>7.26001 -1.3529 0.5 0 -0 0.595584</pose>
        <scale>1 1 1</scale>
        <link name='link'>
          <pose frame=''>7.26001 -1.3529 0.5 0 -0 0.595584</pose>
          <velocity>0 0 0 0 -0 0</velocity>
          <acceleration>-4.4521 -3.62141 11.4638 -0.622319 -0.088369 2.91812</acceleration>
          <wrench>-4.4521 -3.62141 11.4638 0 -0 0</wrench>
        </link>
      </model>
      <model name='unit_box_clone_4_clone_0'>
        <pose frame=''>9.02864 3.92496 0.5 0 -0 0.59551</pose>
        <scale>1 1 1</scale>
        <link name='link'>
          <pose frame=''>9.02864 3.92496 0.5 0 -0 0.59551</pose>
          <velocity>0 0 0 0 -0 0</velocity>
          <acceleration>-4.45244 -3.62132 11.4637 -0.623059 -0.087787 2.91816</acceleration>
          <wrench>-4.45244 -3.62132 11.4637 0 -0 0</wrench>
        </link>
      </model>
      <model name='unit_box_clone_4_clone_1'>
        <pose frame=''>9.02872 -0.085114 0.5 0 -0 0.595436</pose>
        <scale>1 1 1</scale>
        <link name='link'>
          <pose frame=''>9.02872 -0.085114 0.5 0 -0 0.595436</pose>
          <velocity>0 0 0 0 -0 0</velocity>
          <acceleration>-4.45277 -3.62124 11.4636 -0.623799 -0.087206 2.91819</acceleration>
          <wrench>-4.45277 -3.62124 11.4636 0 -0 0</wrench>
        </link>
      </model>
      <model name='unit_box_clone_4_clone_2'>
        <pose frame=''>10.4229 5.78906 0.499995 -9e-06 -0 1.23022</pose>
        <scale>1 1 1</scale>
        <link name='link'>
          <pose frame=''>10.4229 5.78906 0.499995 -9e-06 -0 1.23022</pose>
          <velocity>0 0 0 0 -0 0</velocity>
          <acceleration>-0.185465 0.055833 -9.4837 -0.110843 -0.351689 3e-05</acceleration>
          <wrench>-0.185465 0.055833 -9.4837 0 -0 0</wrench>
        </link>
      </model>
      <model name='unit_box_clone_4_clone_2_clone'>
        <pose frame=''>12.8181 4.24756 0.499995 -0 -5e-06 1.23155</pose>
        <scale>1 1 1</scale>
        <link name='link'>
          <pose frame=''>12.8181 4.24756 0.499995 -0 -5e-06 1.23155</pose>
          <velocity>0 0 0 0 -0 0</velocity>
          <acceleration>0 0 -9.8 0 -0 0</acceleration>
          <wrench>0 0 -9.8 0 -0 0</wrench>
        </link>
      </model>
      <model name='unit_box_clone_4_clone_2_clone_0'>
        <pose frame=''>11.5251 1.45807 0.499995 0 -5e-06 0.932104</pose>
        <scale>1 1 1</scale>
        <link name='link'>
          <pose frame=''>11.5251 1.45807 0.499995 0 -5e-06 0.932104</pose>
          <velocity>0 0 0 0 -0 0</velocity>
          <acceleration>0 0 -9.8 0 -0 0</acceleration>
          <wrench>0 0 -9.8 0 -0 0</wrench>
        </link>
      </model>
      <model name='unit_box_clone_4_clone_2_clone_1'>
        <pose frame=''>10.461 8.1098 0.499995 -9e-06 -0 1.85822</pose>
        <scale>1 1 1</scale>
        <link name='link'>
          <pose frame=''>10.461 8.1098 0.499995 -9e-06 -0 1.85822</pose>
          <velocity>0 0 0 0 -0 0</velocity>
          <acceleration>-0.215228 -0.06587 -9.43281 0.130416 -0.406033 -0.000185</acceleration>
          <wrench>-0.215228 -0.06587 -9.43281 0 -0 0</wrench>
        </link>
      </model>
      <model name='unit_box_clone_4_clone_2_clone_1_clone'>
        <pose frame=''>13.5339 6.45149 0.499995 9e-06 0 1.48554</pose>
        <scale>1 1 1</scale>
        <link name='link'>
          <pose frame=''>13.5339 6.45149 0.499995 9e-06 0 1.48554</pose>
          <velocity>0 0 0 0 -0 0</velocity>
          <acceleration>0.249593 -0.079196 -9.38642 0.156091 0.462848 0.001417</acceleration>
          <wrench>0.249593 -0.079196 -9.38642 0 -0 0</wrench>
        </link>
      </model>
      <model name='unit_box_clone_4_clone_2_clone_1_clone_0'>
        <pose frame=''>13.3627 8.79425 0.499995 9e-06 -0 1.85822</pose>
        <scale>1 1 1</scale>
        <link name='link'>
          <pose frame=''>13.3627 8.79425 0.499995 9e-06 -0 1.85822</pose>
          <velocity>0 0 0 0 -0 0</velocity>
          <acceleration>0.215227 0.06587 -9.43281 -0.130415 0.406031 -0.000185</acceleration>
          <wrench>0.215227 0.06587 -9.43281 0 -0 0</wrench>
        </link>
      </model>
      <model name='unit_box_clone_4_clone_2_clone_1_clone_1'>
        <pose frame=''>12.5864 10.9676 0.499995 0 -5e-06 2.25997</pose>
        <scale>1 1 1</scale>
        <link name='link'>
          <pose frame=''>12.5864 10.9676 0.499995 0 -5e-06 2.25997</pose>
          <velocity>0 0 0 0 -0 0</velocity>
          <acceleration>0 0 -9.8 0 -0 0</acceleration>
          <wrench>0 0 -9.8 0 -0 0</wrench>
        </link>
      </model>
      <model name='unit_box_clone_4_clone_2_clone_1_clone_1_clone'>
        <pose frame=''>10.9561 12.8113 0.5 0 -0 2.2599</pose>
        <scale>1 1 1</scale>
        <link name='link'>
          <pose frame=''>10.9561 12.8113 0.5 0 -0 2.2599</pose>
          <velocity>0 0 0 0 -0 0</velocity>
          <acceleration>6.86253 -7.65498 10.8701 -2.91407 0.819245 -0.286572</acceleration>
          <wrench>6.86253 -7.65498 10.8701 0 -0 0</wrench>
        </link>
      </model>
      <model name='unit_box_clone_4_clone_2_clone_1_clone_2'>
        <pose frame=''>9.19061 10.1724 0.5 0 -0 2.28297</pose>
        <scale>1 1 1</scale>
        <link name='link'>
          <pose frame=''>9.19061 10.1724 0.5 0 -0 2.28297</pose>
          <velocity>0 0 0 0 -0 0</velocity>
          <acceleration>-6.97591 7.56064 10.8707 -3.05569 -1.1331 -0.222736</acceleration>
          <wrench>-6.97591 7.56064 10.8707 0 -0 0</wrench>
        </link>
      </model>
      <light name='sun'>
        <pose frame=''>0 0 10 0 -0 0</pose>
      </light>
      <light name='user_spot_light_0'>
        <pose frame=''>1.54808 -0.99464 1 0 -0 0</pose>
      </light>
    </state>
    <gui fullscreen='0'>
      <camera name='user_camera'>
        <pose frame=''>6.91055 3.96232 27.3937 3.14159 1.57079 3.14159</pose>
        <view_controller>orbit</view_controller>
        <projection_type>perspective</projection_type>
      </camera>
    </gui>
  </world>
</sdf>
